Data wrangling part 2
…
select(), mutate(),group_by(),summarise(),count(), if_else(), and case_when()

If we have time / those who want can delve a bit deeper and look at

left_join(), pivot_wider() and pivot_longer()

We will answer the following questions using the nycflights13 data-set.

select()

It’s not uncommon to get datasets with hundreds or even thousands of variables. In this case, the first challenge is often narrowing in on the variables you’re actually interested in.

select() allows you to rapidly zoom in on a useful subset using operations based on the names of the variables.

# A tibble: 336,776 × 2
   carrier origin
   <chr>   <chr> 
 1 UA      EWR   
 2 UA      LGA   
 3 AA      JFK   
 4 B6      JFK   
 5 DL      LGA   
 6 UA      EWR   
 7 B6      EWR   
 8 EV      LGA   
 9 B6      JFK   
10 AA      LGA   
# … with 336,766 more rows

# A tibble: 336,776 × 2
   origin dest 
   <chr>  <chr>
 1 EWR    IAH  
 2 LGA    IAH  
 3 JFK    MIA  
 4 JFK    BQN  
 5 LGA    ATL  
 6 EWR    ORD  
 7 EWR    FLL  
 8 LGA    IAD  
 9 JFK    MCO  
10 LGA    ORD  
# … with 336,766 more rows

# A tibble: 336,776 × 6
   dep_time sched_dep_time arr_time sched_arr_time air_time time_hour          
      <int>          <int>    <int>          <int>    <dbl> <dttm>             
 1      517            515      830            819      227 2013-01-01 05:00:00
 2      533            529      850            830      227 2013-01-01 05:00:00
 3      542            540      923            850      160 2013-01-01 05:00:00
 4      544            545     1004           1022      183 2013-01-01 05:00:00
 5      554            600      812            837      116 2013-01-01 06:00:00
 6      554            558      740            728      150 2013-01-01 05:00:00
 7      555            600      913            854      158 2013-01-01 06:00:00
 8      557            600      709            723       53 2013-01-01 06:00:00
 9      557            600      838            846      140 2013-01-01 06:00:00
10      558            600      753            745      138 2013-01-01 06:00:00
# … with 336,766 more rows

mutate()

If you want to add new columns that are functions of existing columns. That’s the job of mutate().

mutate() always adds new columns at the end of your dataset so we’ll start by creating a narrower dataset so we can see the new variables.

mutate() can be used with operations (*, +, etc) and is often used with if_else() or case_when()

transmute()

rename()

# A tibble: 336,776 × 21
    year month   day dep_time sched_de…¹ dep_d…² arr_t…³ sched…⁴ arr_d…⁵ carrier
   <int> <int> <int>    <int>      <int>   <dbl>   <int>   <int>   <dbl> <chr>  
 1  2013     1     1      517        515       2     830     819      11 UA     
 2  2013     1     1      533        529       4     850     830      20 UA     
 3  2013     1     1      542        540       2     923     850      33 AA     
 4  2013     1     1      544        545      -1    1004    1022     -18 B6     
 5  2013     1     1      554        600      -6     812     837     -25 DL     
 6  2013     1     1      554        558      -4     740     728      12 UA     
 7  2013     1     1      555        600      -5     913     854      19 B6     
 8  2013     1     1      557        600      -3     709     723     -14 EV     
 9  2013     1     1      557        600      -3     838     846      -8 B6     
10  2013     1     1      558        600      -2     753     745       8 AA     
# … with 336,766 more rows, 11 more variables: flight <int>, tailnum <chr>,
#   origin <chr>, dest <chr>, air_time <dbl>, distance <dbl>, hour <dbl>,
#   minute <dbl>, time_hour <dttm>, total_delay <dbl>, refund <dbl>, and
#   abbreviated variable names ¹​sched_dep_time, ²​dep_delay, ³​arr_time,
#   ⁴​sched_arr_time, ⁵​arr_delay

# A tibble: 336,776 × 21
    year month   day dep_time sched_de…¹ dep_d…² arr_t…³ sched…⁴ arr_d…⁵ carrier
   <int> <int> <int>    <int>      <int>   <dbl>   <int>   <int>   <dbl> <chr>  
 1  2013     1     1      517        515       2     830     819      11 UA     
 2  2013     1     1      533        529       4     850     830      20 UA     
 3  2013     1     1      542        540       2     923     850      33 AA     
 4  2013     1     1      544        545      -1    1004    1022     -18 B6     
 5  2013     1     1      554        600      -6     812     837     -25 DL     
 6  2013     1     1      554        558      -4     740     728      12 UA     
 7  2013     1     1      555        600      -5     913     854      19 B6     
 8  2013     1     1      557        600      -3     709     723     -14 EV     
 9  2013     1     1      557        600      -3     838     846      -8 B6     
10  2013     1     1      558        600      -2     753     745       8 AA     
# … with 336,766 more rows, 11 more variables: flight <int>, tailnum <chr>,
#   origin <chr>, dest <chr>, air_time <dbl>, distance <dbl>, hour <dbl>,
#   minute <dbl>, time_hour <dttm>, total_delay <dbl>, refund_groups <dbl>, and
#   abbreviated variable names ¹​sched_dep_time, ²​dep_delay, ³​arr_time,
#   ⁴​sched_arr_time, ⁵​arr_delay

# A tibble: 336,776 × 1
   total_delay
         <dbl>
 1          13
 2          24
 3          35
 4         -19
 5         -31
 6           8
 7          14
 8         -17
 9         -11
10           6
# … with 336,766 more rows

# A tibble: 336,776 × 19
    year month   day dep_time sched_de…¹ dep_d…² arr_t…³ sched…⁴ arr_d…⁵ carrier
   <int> <int> <int>    <int>      <int>   <dbl>   <int>   <int>   <dbl> <chr>  
 1  2013     1     1      517        515       2     830     819      11 UA     
 2  2013     1     1      533        529       4     850     830      20 UA     
 3  2013     1     1      542        540       2     923     850      33 AA     
 4  2013     1     1      544        545      -1    1004    1022     -18 B6     
 5  2013     1     1      554        600      -6     812     837     -25 DL     
 6  2013     1     1      554        558      -4     740     728      12 UA     
 7  2013     1     1      555        600      -5     913     854      19 B6     
 8  2013     1     1      557        600      -3     709     723     -14 EV     
 9  2013     1     1      557        600      -3     838     846      -8 B6     
10  2013     1     1      558        600      -2     753     745       8 AA     
# … with 336,766 more rows, 9 more variables: flight <int>, tailnum <chr>,
#   origin <chr>, destination <chr>, air_time <dbl>, distance <dbl>,
#   hour <dbl>, minute <dbl>, time_hour <dttm>, and abbreviated variable names
#   ¹​sched_dep_time, ²​dep_delay, ³​arr_time, ⁴​sched_arr_time, ⁵​arr_delay
…
group_by() is a very useful function that can be used for data aggregation.

It is often paired with summarise(), and mutate().

count() is like group_by() and summarise() in one.

ungroup() to remove a grouping.

# A tibble: 1 × 1
  delay
  <dbl>
1  12.6

# A tibble: 105 × 2
   dest  delay
   <chr> <dbl>
 1 ABQ   13.7 
 2 ACK    6.46
 3 ALB   23.6 
 4 ANC   12.9 
 5 ATL   12.5 
 6 AUS   13.0 
 7 AVL    8.19
 8 BDL   17.7 
 9 BGR   19.5 
10 BHM   29.7 
# … with 95 more rows

# A tibble: 105 × 2
   dest  delayed_flights
   <chr>           <dbl>
 1 ABQ               122
 2 ACK               172
 3 ALB               200
 4 ANC                 1
 5 ATL              9877
 6 AUS              1236
 7 AVL               172
 8 BDL               213
 9 BGR               194
10 BHM               126
# … with 95 more rows

# A tibble: 336,776 × 20
# Groups:   dest, carrier [314]
    year month   day dep_time sched_de…¹ dep_d…² arr_t…³ sched…⁴ arr_d…⁵ carrier
   <int> <int> <int>    <int>      <int>   <dbl>   <int>   <int>   <dbl> <chr>  
 1  2013     1     1      517        515       2     830     819      11 UA     
 2  2013     1     1      533        529       4     850     830      20 UA     
 3  2013     1     1      542        540       2     923     850      33 AA     
 4  2013     1     1      544        545      -1    1004    1022     -18 B6     
 5  2013     1     1      554        600      -6     812     837     -25 DL     
 6  2013     1     1      554        558      -4     740     728      12 UA     
 7  2013     1     1      555        600      -5     913     854      19 B6     
 8  2013     1     1      557        600      -3     709     723     -14 EV     
 9  2013     1     1      557        600      -3     838     846      -8 B6     
10  2013     1     1      558        600      -2     753     745       8 AA     
# … with 336,766 more rows, 10 more variables: flight <int>, tailnum <chr>,
#   origin <chr>, dest <chr>, air_time <dbl>, distance <dbl>, hour <dbl>,
#   minute <dbl>, time_hour <dttm>, count <int>, and abbreviated variable names
#   ¹​sched_dep_time, ²​dep_delay, ³​arr_time, ⁴​sched_arr_time, ⁵​arr_delay

# A tibble: 314 × 3
   dest  carrier     n
   <chr> <chr>   <int>
 1 ABQ   B6        254
 2 ACK   B6        265
 3 ALB   EV        439
 4 ANC   UA          8
 5 ATL   9E         59
 6 ATL   DL      10571
 7 ATL   EV       1764
 8 ATL   FL       2337
 9 ATL   MQ       2322
10 ATL   UA        103
# … with 304 more rows

left-join()

There are a number of different joins see R for Data Science: Relational data

I mainly use left_join()

With left_join() You keep all variables in dataset x and though

You can join on one or more columns.

# A tibble: 336,776 × 18
    year month   day dep_time sched_de…¹ dep_d…² arr_t…³ sched…⁴ arr_d…⁵ carrier
   <int> <int> <int>    <int>      <int>   <dbl>   <int>   <int>   <dbl> <chr>  
 1  2013     1     1      517        515       2     830     819      11 UA     
 2  2013     1     1      533        529       4     850     830      20 UA     
 3  2013     1     1      542        540       2     923     850      33 AA     
 4  2013     1     1      544        545      -1    1004    1022     -18 B6     
 5  2013     1     1      554        600      -6     812     837     -25 DL     
 6  2013     1     1      554        558      -4     740     728      12 UA     
 7  2013     1     1      555        600      -5     913     854      19 B6     
 8  2013     1     1      557        600      -3     709     723     -14 EV     
 9  2013     1     1      557        600      -3     838     846      -8 B6     
10  2013     1     1      558        600      -2     753     745       8 AA     
# … with 336,766 more rows, 8 more variables: flight <int>, tailnum <chr>,
#   air_time <dbl>, distance <dbl>, hour <dbl>, minute <dbl>, time_hour <dttm>,
#   name <chr>, and abbreviated variable names ¹​sched_dep_time, ²​dep_delay,
#   ³​arr_time, ⁴​sched_arr_time, ⁵​arr_delay

# A tibble: 336,776 × 20
    year month   day dep_time sched_de…¹ dep_d…² arr_t…³ sched…⁴ arr_d…⁵ carrier
   <int> <int> <int>    <int>      <int>   <dbl>   <int>   <int>   <dbl> <chr>  
 1  2013     1     1      517        515       2     830     819      11 UA     
 2  2013     1     1      533        529       4     850     830      20 UA     
 3  2013     1     1      542        540       2     923     850      33 AA     
 4  2013     1     1      544        545      -1    1004    1022     -18 B6     
 5  2013     1     1      554        600      -6     812     837     -25 DL     
 6  2013     1     1      554        558      -4     740     728      12 UA     
 7  2013     1     1      555        600      -5     913     854      19 B6     
 8  2013     1     1      557        600      -3     709     723     -14 EV     
 9  2013     1     1      557        600      -3     838     846      -8 B6     
10  2013     1     1      558        600      -2     753     745       8 AA     
# … with 336,766 more rows, 10 more variables: flight <int>, tailnum <chr>,
#   origin <chr>, dest <chr>, air_time <dbl>, distance <dbl>, hour <dbl>,
#   minute <dbl>, time_hour <dttm>, dest_airport <chr>, and abbreviated
#   variable names ¹​sched_dep_time, ²​dep_delay, ³​arr_time, ⁴​sched_arr_time,
#   ⁵​arr_delay
